Neural Networks
…
set.seed(777)
DataDiamonds=diamonds %>% 
               clean_names("upper_camel") %>%
               select(Price, Carat, Clarity) %>%
               mutate(Clarity=as.integer(Clarity)) %>% 
               sample_n(10000) 
set.seed(777)
Split70=DataDiamonds %>%
  initial_split(prop = 0.7, strata = Price, breaks = 5)
DataTrain=training(Split70)
DataTest=testing(Split70)
print(DataTrain)

# A tibble: 6,999 × 3
   Price Carat Clarity
   <int> <dbl>   <int>
 1   506  0.3        3
 2   628  0.28       6
 3   753  0.3        7
 4   766  0.3        6
 5   552  0.35       5
 6   743  0.33       5
 7   698  0.31       4
 8   526  0.3        4
 9   675  0.3        5
10   544  0.31       4
# ℹ 6,989 more rows
…
