k Nearest Neighbors
…
About the Wine Dataset

We will work with a publicly available wine dataset1 containing 3,198 observations about different wines and their chemical properties.

Our goal is to develop a k-Nearest Neighbors model that can predict if a wine is red or white based on the wine’s chemical properties.»

Cortez, Paulo, António Cerdeira, Fernando Almeida, Telmo Matos, and José Reis. 2009. “Modeling Wine Preferences by Data Mining from Physicochemical Properties.” Decision Support Systems 47 (4): 547–53. https://doi.org/10.1016/j.dss.2009.05.016.

Raw Observations from Wine Dataset

library(rio)
DataWine=import("https://lange-analytics.com/AIBook/Data/WineData.rds")
print(DataWine)

# A tibble: 3,198 × 13
   wineColor acidity volatileAcidity citricAcid residualSugar Chlorides
   <chr>       <dbl>           <dbl>      <dbl>         <dbl>     <dbl>
 1 red          10.8           0.32        0.44           1.6     0.063
 2 white         6.4           0.31        0.39           7.5     0.04 
 3 white         9.4           0.28        0.3            1.6     0.045
 4 white         8.2           0.22        0.36           6.8     0.034
 5 white         6.4           0.29        0.44           3.6     0.197
 6 red           6.7           0.855       0.02           1.9     0.064
 7 red          11.8           0.38        0.55           2.1     0.071
 8 white         6.7           0.25        0.23           7.2     0.038
 9 red           7.5           0.38        0.57           2.3     0.106
10 red           7.1           0.27        0.6            2.1     0.074
# … with 3,188 more rows, and 7 more variables: freeSulfurDioxide <dbl>,
#   totalSulfurDioxide <dbl>, Density <dbl>, pH <dbl>, sulphates <dbl>,
#   alcohol <dbl>, quality <dbl>
…
Observations from Wine Dataset for Selected Variables

Sulfor Dioxide and Acidity

Note we use clean_names("upper_camel") from the janitor package to change all column (variable) names to UpperCamel.

library(tidyverse); library(rio);library(janitor)
DataWine=import("https://lange-analytics.com/AIBook/Data/WineData.rds") %>% 
  clean_names("upper_camel") %>% 
  select(WineColor,Sulfur=TotalSulfurDioxide,Acidity) %>% 
  mutate(WineColor=as.factor(WineColor))
print(DataWine)

# A tibble: 3,198 × 3
   WineColor Sulfur Acidity
   <fct>      <dbl>   <dbl>
 1 red           37    10.8
 2 white        213     6.4
 3 white        139     9.4
 4 white         90     8.2
 5 white        183     6.4
 6 red           38     6.7
 7 red           19    11.8
 8 white        220     6.7
 9 red           12     7.5
10 red           25     7.1
# … with 3,188 more rows
…
\[z=\frac{x-\overline x}{s}\]»

Time to Run k-Nearest Neighbors

Loading Data and Selecting Variables

library(tidyverse); library(rio);library(janitor)
DataWine=import("https://lange-analytics.com/AIBook/Data/WineData.rds") %>% 
         clean_names("upper_camel") %>% 
         select(WineColor,Sulfur=TotalSulfurDioxide,Acidity) %>% 
  mutate(WineColor=as.factor(WineColor))
print(DataWine)

# A tibble: 3,198 × 3
   WineColor Sulfur Acidity
   <fct>      <dbl>   <dbl>
 1 red           37    10.8
 2 white        213     6.4
 3 white        139     9.4
 4 white         90     8.2
 5 white        183     6.4
 6 red           38     6.7
 7 red           19    11.8
 8 white        220     6.7
 9 red           12     7.5
10 red           25     7.1
# … with 3,188 more rows
»

Time to Run k-Nearest Neighbors

Generate Training and Testing Data (Splitting):

library(tidymodels);
set.seed(876)
Split7030=initial_split(DataWine,prop=0.7,strata = WineColor)

DataTrain=training(Split7030)
DataTest=testing(Split7030)
print(DataTrain)

# A tibble: 2,238 × 3
   WineColor Sulfur Acidity
   <fct>      <dbl>   <dbl>
 1 red           37    10.8
 2 red           38     6.7
 3 red           12     7.5
 4 red           25     7.1
 5 red          114     8  
 6 red           66     7.6
 7 red           49     6.8
 8 red          110     7  
 9 red           44     6.5
10 red           10    10.4
# … with 2,228 more rows

print(DataTest)

# A tibble: 960 × 3
   WineColor Sulfur Acidity
   <fct>      <dbl>   <dbl>
 1 white         90     8.2
 2 red           19    11.8
 3 white        220     6.7
 4 red          131     7.8
 5 white        161     7  
 6 red           41     9.9
 7 white        156     7.8
 8 white        150     6.5
 9 red          102     7.9
10 red           11     5.8
# … with 950 more rows
…
Start with observation \(i=1\) from DataTest (the first observation).

Take observation \(i\) from DataTest and use Acidity and Sulfur to calculate the Euclidean distance to each of the observations of DataTrain.

Isolate the 4 observations with the smallest Euclidean distance and use the majority of their wine color as a prediction for observation \(i\) from DataTest (in case of a par, decide randomly).

Increase \(i\) by one (i.e., take the next observation from DataTest) and go to step 2 (until all DataTest observations are processed).

Time to Run k-Nearest Neighbors

Predicting with the fitted workflow using predict() (not exactly helpful!):

predict(WFModelWine, DataTest)

# A tibble: 960 × 1
   .pred_class
   <fct>      
 1 white      
 2 red        
 3 white      
 4 white      
 5 white      
 6 red        
 7 white      
 8 white      
 9 red        
10 red        
# … with 950 more rows
…
